knn_machinelearning - Tidymodels
…
Type of response variable: nominal
Minimal misclassification: 0.03286385
Best kernel: optimal
Best k: 21

Evaluación de la predicción del modelo

Se predicen las clases suministrando la información de los datos de entrenamiento

clases_preds <- predict(knn_fit, new_data = wbc_test_baked,
                        type = "class")
clases_preds

# A tibble: 142 × 1
   .pred_class
   <fct>      
 1 M          
 2 M          
 3 M          
 4 M          
 5 M          
 6 M          
 7 M          
 8 M          
 9 M          
10 M          
# … with 132 more rows

Se predicen las probabilidades

prob_preds <- predict(knn_fit, new_data = wbc_test_baked,
                        type = "prob")

prob_preds

# A tibble: 142 × 2
   .pred_M .pred_B
     <dbl>   <dbl>
 1   1      0     
 2   1      0     
 3   0.955  0.0453
 4   0.965  0.0351
 5   0.836  0.164 
 6   1      0     
 7   1      0     
 8   1      0     
 9   1      0     
10   0.689  0.311 
# … with 132 more rows

Métricas del modelo

#se crea una data.frame/tibble de resultados conteniendo los valores actuales (truth) y los valores predichos del modelo como clases y probabilidades

resultados <- wbc_test %>% select(diagnosis) %>% 
                bind_cols(clases_preds) %>% 
                bind_cols(prob_preds)

resultados

# A tibble: 142 × 4
   diagnosis .pred_class .pred_M .pred_B
   <fct>     <fct>         <dbl>   <dbl>
 1 M         M             1      0     
 2 M         M             1      0     
 3 M         M             0.955  0.0453
 4 M         M             0.965  0.0351
 5 M         M             0.836  0.164 
 6 M         M             1      0     
 7 M         M             1      0     
 8 M         M             1      0     
 9 M         M             1      0     
10 M         M             0.689  0.311 
# … with 132 more rows
…
